<svg xmlns="http://www.w3.org/2000/svg" width="23.737" height="20.002" viewBox="0 0 23.737 20.002">
  <g id="cart" transform="translate(0 -40.283)">
    <path id="Path_3" data-name="Path 3" d="M23.384,46.995a1.64,1.64,0,0,0-1.29-.619H17.523L15.044,40.7a.7.7,0,1,0-1.275.557l2.236,5.12H7.732l2.236-5.12A.7.7,0,1,0,8.693,40.7L6.214,46.376H1.643A1.64,1.64,0,0,0,.352,47a1.6,1.6,0,0,0-.312,1.362L2.482,59.02a1.629,1.629,0,0,0,1.6,1.265H19.653a1.629,1.629,0,0,0,1.6-1.265L23.7,48.357a1.6,1.6,0,0,0-.312-1.362Zm-3.731,11.9H4.084a.249.249,0,0,1-.246-.184L1.4,48.047a.212.212,0,0,1,.043-.185.253.253,0,0,1,.2-.095H5.607l-.182.417a.7.7,0,1,0,1.275.557l.425-.974h9.488l.425.974a.7.7,0,0,0,1.275-.557l-.182-.417h3.964a.253.253,0,0,1,.2.095.213.213,0,0,1,.043.185L19.9,58.71a.249.249,0,0,1-.246.184Z" transform="translate(0)" fill="#7f32fd"/>
    <path id="Path_4" data-name="Path 4" d="M151.7,266.717a.7.7,0,0,0-.7.7v5.1a.7.7,0,1,0,1.391,0v-5.1A.7.7,0,0,0,151.7,266.717Z" transform="translate(-144 -215.937)" fill="#7f32fd"/>
    <path id="Path_5" data-name="Path 5" d="M241.7,266.717a.7.7,0,0,0-.7.7v5.1a.7.7,0,1,0,1.391,0v-5.1A.7.7,0,0,0,241.7,266.717Z" transform="translate(-229.827 -215.937)" fill="#7f32fd"/>
    <path id="Path_6" data-name="Path 6" d="M331.7,266.717a.7.7,0,0,0-.7.7v5.1a.7.7,0,1,0,1.391,0v-5.1A.7.7,0,0,0,331.7,266.717Z" transform="translate(-315.655 -215.937)" fill="#7f32fd"/>
  </g>
</svg>
