<svg xmlns="http://www.w3.org/2000/svg" width="17.16" height="15.015" viewBox="0 0 17.16 15.015">
  <g id="clock" transform="translate(0 -34.445)">
    <path id="Path_19" data-name="Path 19" d="M275.483,172.228l0,3.752a.536.536,0,0,0,.157.379l2.684,2.683.758-.758-2.527-2.526,0-3.53Z" transform="translate(-266.904 -133.493)" fill="#676e8b"/>
    <path id="Path_20" data-name="Path 20" d="M9.652,34.445A7.513,7.513,0,0,0,2.231,40.88H0l2.681,2.681L5.362,40.88H3.314a6.424,6.424,0,1,1,1.264,5.03l-.845.66a7.508,7.508,0,1,0,5.92-12.125Z" fill="#676e8b"/>
  </g>
</svg>
