<svg xmlns="http://www.w3.org/2000/svg" width="30" height="30" viewBox="0 0 30 30">
  <g id="Delete" transform="translate(-955 -790)">
    <g id="Rectangle_36" data-name="Rectangle 36" transform="translate(955 790)" fill="#fff" stroke="#ededed" stroke-width="1">
      <rect width="30" height="30" rx="5" stroke="none"/>
      <rect x="0.5" y="0.5" width="29" height="29" rx="4.5" fill="none"/>
    </g>
    <text id="_" data-name="" transform="translate(962 812)" fill="#7f32fd" font-size="16" font-family="themify"><tspan x="0" y="0"></tspan></text>
  </g>
</svg>
