<svg xmlns="http://www.w3.org/2000/svg" width="22" height="20" viewBox="0 0 22 20">
  <g id="filter_icon" transform="translate(-1127 -756)">
    <g id="_1" data-name="1">
      <rect id="Rectangle_21" data-name="Rectangle 21" width="2" height="20" rx="1" transform="translate(1129 756)" fill="#7f32fd"/>
      <g id="Ellipse_4" data-name="Ellipse 4" transform="translate(1127 765)" fill="#fff" stroke="#7f32fd" stroke-width="1.5">
        <circle cx="3" cy="3" r="3" stroke="none"/>
        <circle cx="3" cy="3" r="2.25" fill="none"/>
      </g>
    </g>
    <g id="_1-2" data-name="1" transform="translate(8)">
      <rect id="Rectangle_21-2" data-name="Rectangle 21" width="2" height="20" rx="1" transform="translate(1129 756)" fill="#7f32fd"/>
      <g id="Ellipse_4-2" data-name="Ellipse 4" transform="translate(1127 759)" fill="#fff" stroke="#7f32fd" stroke-width="1.5">
        <circle cx="3" cy="3" r="3" stroke="none"/>
        <circle cx="3" cy="3" r="2.25" fill="none"/>
      </g>
    </g>
    <g id="_1-3" data-name="1" transform="translate(16)">
      <rect id="Rectangle_21-3" data-name="Rectangle 21" width="2" height="20" rx="1" transform="translate(1129 756)" fill="#7f32fd"/>
      <g id="Ellipse_4-3" data-name="Ellipse 4" transform="translate(1127 767)" fill="#fff" stroke="#7f32fd" stroke-width="1.5">
        <circle cx="3" cy="3" r="3" stroke="none"/>
        <circle cx="3" cy="3" r="2.25" fill="none"/>
      </g>
    </g>
  </g>
</svg>
