<svg id="loc_icon" xmlns="http://www.w3.org/2000/svg" width="20" height="20" viewBox="0 0 20 20">
  <g id="Group_2" data-name="Group 2">
    <g id="Group_1" data-name="Group 1">
      <path id="Path_7" data-name="Path 7" d="M18.769,9.414a8.8,8.8,0,0,0-8.183-8.183V0H9.414V1.231A8.8,8.8,0,0,0,1.231,9.414H0v1.172H1.231a8.8,8.8,0,0,0,8.183,8.183V20h1.172V18.769a8.8,8.8,0,0,0,8.183-8.183H20V9.414ZM9.414,2.405V4.759A5.283,5.283,0,0,0,4.759,9.414H2.405A7.63,7.63,0,0,1,9.414,2.405Zm0,15.19a7.63,7.63,0,0,1-7.009-7.009H4.759a5.283,5.283,0,0,0,4.655,4.655Zm0-4.665v1.13A4.111,4.111,0,0,1,5.94,10.586H7.07V9.414H5.94A4.111,4.111,0,0,1,9.414,5.94V7.07h1.172V5.94A4.111,4.111,0,0,1,14.06,9.414H12.93v1.172h1.13a4.111,4.111,0,0,1-3.474,3.474V12.93Zm1.172,4.665V15.241a5.283,5.283,0,0,0,4.655-4.655h2.354A7.63,7.63,0,0,1,10.586,17.595Zm4.655-8.181a5.283,5.283,0,0,0-4.655-4.655V2.405a7.63,7.63,0,0,1,7.009,7.009Z" fill="#7f32fd"/>
    </g>
  </g>
  <g id="Group_4" data-name="Group 4" transform="translate(8.242 8.242)">
    <g id="Group_3" data-name="Group 3">
      <path id="Path_8" data-name="Path 8" d="M212.758,211a1.758,1.758,0,1,0,1.758,1.758A1.76,1.76,0,0,0,212.758,211Z" transform="translate(-211 -211)" fill="#7f32fd"/>
    </g>
  </g>
</svg>
