<svg xmlns="http://www.w3.org/2000/svg" width="39.109" height="50.954" viewBox="0 0 39.109 50.954">
  <g id="about_icon" transform="translate(-0.001 0)">
    <path id="Path_9" data-name="Path 9" d="M119.342,276.27a8.526,8.526,0,1,0,8.526,8.526A8.536,8.536,0,0,0,119.342,276.27Zm0,15.559a7.033,7.033,0,1,1,7.034-7.033A7.041,7.041,0,0,1,119.342,291.829Zm0,0" transform="translate(-99.788 -248.775)" fill="#fefdff"/>
    <path id="Path_10" data-name="Path 10" d="M37.416,16.7h-.058l1.7-8.245a2.195,2.195,0,0,0-.341-1.714,1.946,1.946,0,0,0-1.344-.812L34.5,5.545a2.015,2.015,0,0,0-.64.019l.025-.214a2.241,2.241,0,0,0-.491-1.7,1.984,1.984,0,0,0-1.419-.716l-2.128-.122A2.316,2.316,0,0,0,29.4,1.135,2.029,2.029,0,0,0,28.01.346L25.045.013a2.056,2.056,0,0,0-1.534.459,2.352,2.352,0,0,0-.843,1.6l-.27,2.8a2.114,2.114,0,0,0-.242-.3,2.04,2.04,0,0,0-1.467-.625H17.745a2.014,2.014,0,0,0-1.092.322l-.212-2.2A2.351,2.351,0,0,0,15.6.472,2.056,2.056,0,0,0,14.065.013L11.1.346a2.029,2.029,0,0,0-1.387.789,2.316,2.316,0,0,0-.452,1.677l-2.128.122a1.984,1.984,0,0,0-1.419.716,2.241,2.241,0,0,0-.491,1.7l.025.215a2.014,2.014,0,0,0-.64-.019l-2.874.381A1.947,1.947,0,0,0,.39,6.738,2.195,2.195,0,0,0,.049,8.451l1.7,8.245H1.694A1.693,1.693,0,0,0,.025,18.677L5.347,49.548a1.69,1.69,0,0,0,1.669,1.405H32.094a1.689,1.689,0,0,0,1.668-1.405l5.322-30.872A1.693,1.693,0,0,0,37.416,16.7ZM33.644,7.418a.687.687,0,0,1,.662-.393l2.874.38a.463.463,0,0,1,.322.2.7.7,0,0,1,.1.547L35.833,16.7H34.742l.727-5.739a2.073,2.073,0,0,0-.454-1.59,1.938,1.938,0,0,0-1.4-.7L33.5,8.664Zm-1.018,2.7.91.047a.456.456,0,0,1,.334.164.571.571,0,0,1,.118.444L33.237,16.7H29.75l.4-2.357a2,2,0,0,0-.272-1.394l.178-2.3a.706.706,0,0,1,.311-.532.571.571,0,0,1,.345-.1l1.909.1ZM28.92,4.256h.03l2.942.168a.5.5,0,0,1,.361.185.746.746,0,0,1,.152.566l-.229,1.949h0L32,8.587l-1.211-.062a2.157,2.157,0,0,0-2.221,2l-.114,1.478-.7-.11.479-6.9A.752.752,0,0,1,28.92,4.256Zm-.238,9.832-.459,2.684a1.689,1.689,0,0,0-1.077,1.016,8.122,8.122,0,0,1-2.937,3.753c-.143.1-.29.194-.438.285l1.2-8.323a.52.52,0,0,1,.595-.439l1.273.2h0l1.41.222a.519.519,0,0,1,.431.6Zm-6.195,5.392L24.154,2.211a.851.851,0,0,1,.3-.58.574.574,0,0,1,.427-.135l2.966.332a.544.544,0,0,1,.371.218.821.821,0,0,1,.148.62l-.026.18-.037.012-.046.016c-.047.016-.093.033-.138.053l-.035.015a2.109,2.109,0,0,0-.255.135l-.022.014c-.051.033-.1.067-.149.1l-.013.009c-.026.02-.051.04-.076.061l-.016.014c-.043.037-.084.075-.124.115l-.03.03c-.02.021-.041.042-.06.065s-.042.049-.063.073l-.056.07-.04.056-.051.074c-.019.029-.037.058-.054.087l-.031.055c-.019.033-.037.067-.054.1l-.023.05c-.016.035-.032.071-.047.107l-.017.044c-.017.045-.033.091-.048.137,0,.011-.007.023-.01.035-.013.042-.024.086-.035.129,0,.009,0,.019-.007.028-.011.051-.021.1-.029.154l-.005.035c-.007.054-.014.108-.017.163l-.47,6.774-.481-.075a2.011,2.011,0,0,0-2.3,1.7l-1.027,7.123ZM17.347,5.609a.551.551,0,0,1,.4-.175h2.944a.555.555,0,0,1,.4.176.773.773,0,0,1,.209.557L21,19.077,20.713,13.5a2.266,2.266,0,0,0-.685-1.518,2.06,2.06,0,0,0-1.553-.592l-1.2.063-.025-.98-.11-4.309A.768.768,0,0,1,17.347,5.609Zm1.206,7.271a.6.6,0,0,1,.437.175.777.777,0,0,1,.232.523L19.714,23l-.159,0a8.086,8.086,0,0,1-3.591-.834l-.848-8.413a.716.716,0,0,1,.155-.538.515.515,0,0,1,.367-.185ZM10.894,2.047a.545.545,0,0,1,.372-.218L14.231,1.5a.575.575,0,0,1,.427.135.851.851,0,0,1,.3.58l.8,8.327.026.994-.225.012a2,2,0,0,0-1.421.7,2.216,2.216,0,0,0-.508,1.66l.411,4.072-.926-2.219-.754-10.87c0-.055-.01-.109-.017-.162,0-.012,0-.024-.005-.036-.008-.052-.017-.1-.029-.154L12.3,4.512c-.01-.045-.022-.089-.035-.133l-.009-.031c-.015-.048-.031-.094-.049-.141L12.2,4.17c-.016-.041-.034-.081-.052-.12,0-.008-.007-.016-.01-.023-.021-.044-.043-.086-.066-.127l-.023-.041c-.024-.04-.048-.08-.074-.118l-.022-.031q-.032-.047-.066-.091l-.028-.037c-.028-.035-.058-.07-.088-.1l-.031-.033c-.026-.028-.053-.055-.08-.081l-.025-.024c-.034-.031-.068-.061-.1-.091l-.033-.026c-.037-.03-.075-.058-.114-.085l-.015-.009c-.038-.026-.076-.05-.115-.073l-.024-.014c-.043-.025-.087-.049-.133-.07l-.016-.007c-.047-.022-.094-.043-.143-.062h0c-.05-.019-.1-.037-.154-.052l-.005,0-.026-.181a.823.823,0,0,1,.148-.62ZM6.857,4.609a.5.5,0,0,1,.361-.185l2.944-.168h.013a.75.75,0,0,1,.7.738l.449,6.468-.37-.888a2.266,2.266,0,0,0-1.157-1.2c-.065-.03-.13-.055-.2-.078l-.012,0c-.064-.021-.128-.039-.192-.054l-.019,0c-.063-.014-.126-.025-.189-.033l-.024,0c-.062-.007-.125-.012-.187-.014H8.918c-.033,0-.066,0-.1,0l-.084,0c-.042,0-.084.011-.126.017-.026,0-.052.007-.079.012-.045.009-.091.021-.136.033l-.065.016a2.057,2.057,0,0,0-.2.071l-.893.374L7.1,8.568,6.7,5.176A.748.748,0,0,1,6.857,4.609Zm-.842,7.235.442-.185.444-.185h0l1.807-.756a.6.6,0,0,1,.47.017.781.781,0,0,1,.395.414l3.717,8.907a8.105,8.105,0,0,1-1.325-2.267A1.686,1.686,0,0,0,10.382,16.7H7.665l-1.9-4a.716.716,0,0,1-.035-.559.553.553,0,0,1,.062-.119A.5.5,0,0,1,6.015,11.843Zm-4.5-3.694a.7.7,0,0,1,.1-.547.464.464,0,0,1,.323-.2L4.8,7.025a.69.69,0,0,1,.662.393l.158,1.34.183,1.554-.367.154a2,2,0,0,0-1.1,1.141,2.212,2.212,0,0,0,.08,1.733L6.012,16.7H3.276Zm36.1,10.274L35.256,32.1H30.375a.746.746,0,1,0,0,1.493H35l-.776,4.5H30.473a.746.746,0,0,0,0,1.493h3.492l-1.674,9.709a.2.2,0,0,1-.2.166H7.016a.2.2,0,0,1-.2-.166L5.145,39.586H8.637a.746.746,0,0,0,0-1.493H4.887l-.776-4.5H8.758a.746.746,0,1,0,0-1.493h-4.9L1.5,18.423a.2.2,0,0,1,.2-.235h8.688a.2.2,0,0,1,.189.135A9.625,9.625,0,0,0,19.555,24.5c.1,0,.2,0,.309-.006l.147-.006.129-.007a9.6,9.6,0,0,0,1.343-.175h0a9.629,9.629,0,0,0,7.052-5.979.2.2,0,0,1,.189-.135h8.688a.2.2,0,0,1,.2.235Zm0,0" transform="translate(0 0)" fill="#fefdff"/>
  </g>
</svg>
